…
## How many players in each team?

``` r
data %>% 
  group_by(team_code) %>% 
  distinct(player_name) %>% 
  count(sort = T) 
```

    ## # A tibble: 58 × 2
    ## # Groups:   team_code [58]
    ##    team_code     n
    ##    <chr>     <int>
    ##  1 NYR        1114
    ##  2 BOS        1059
    ##  3 CHI        1019
    ##  4 TOR        1010
    ##  5 DET         958
    ##  6 MTL         936
    ##  7 PIT         771
    ##  8 STL         710
    ##  9 LAK         704
    ## 10 VAN         683
    ## # ℹ 48 more rows
…
